April Baik - Project 1: Exploratory Data Analysis
…
SmashUltimate <- SmashU %>%mutate(`Pro Score S/A Tier`=case_when(`Pro Score S/A Tier`>13.2~ "Best",9.9<=`Pro Score S/A Tier`& `Pro Score S/A Tier`<=13.2~"Strong",6.6<=`Pro Score S/A Tier`&`Pro Score S/A Tier`<=9.9~"Good", 3.3<=`Pro Score S/A Tier`&`Pro Score S/A Tier`<=6.6~"Average",0<=`Pro Score S/A Tier`&`Pro Score S/A Tier`<=3.3~"Weak" ))%>%na.omit()

SmashUltimate %>% filter(`Pro Score S/A Tier`=="Best")

## # A tibble: 2 x 8
##   `Meta Score Ran… Character `Meta Score Com… `Pro Score S/A … Weight
##   <chr>            <chr>                <dbl> <chr>            <chr> 
## 1 8.0              Olimar                  42 Best             "79 " 
## 2 9.0              Lucina                  41 Best             "90 " 
## # … with 3 more variables: `Run Speed` <chr>, `Fall Speed` <chr>, `Air
## #   Acceleration` <chr>

SmashUltimate%>% arrange(Weight)

## # A tibble: 55 x 8
##    `Meta Score Ran… Character `Meta Score Com… `Pro Score S/A … Weight
##    <chr>            <chr>                <dbl> <chr>            <chr> 
##  1 29.0             Cloud                 14.5 Weak             "100 "
##  2 57.0             MiiBrawl…              3   Weak             "100 "
##  3 62.0             MiiGunner              2.5 Weak             "100 "
##  4 12.0             MegaMan               35.5 Average          "102 "
##  5 25.0             Shulk                 17.5 Weak             "102 "
##  6 66.0             Ryu                    1.5 Weak             "103 "
##  7 18.0             Yoshi                 29.5 Weak             "104 "
##  8 31.0             Link                  13   Weak             "104 "
##  9 36.0             CaptainF…             10   Weak             "104 "
## 10 10.0             Rob                   38   Weak             "106 "
## # … with 45 more rows, and 3 more variables: `Run Speed` <chr>, `Fall
## #   Speed` <chr>, `Air Acceleration` <chr>

SmashUltimate %>% select(Character, `Meta Score Rank`, -`Meta Score Combined`,`Pro Score S/A Tier`,everything())

## # A tibble: 55 x 8
##    Character `Meta Score Ran… `Pro Score S/A … `Meta Score Com… Weight
##    <chr>     <chr>            <chr>                       <dbl> <chr> 
##  1 Peach     2.0              Strong                       66.5 "89 " 
##  2 Palutena  4.0              Strong                       54   "91 " 
##  3 Fox       7.0              Average                      43   "79 " 
##  4 Olimar    8.0              Best                         42   "79 " 
##  5 Lucina    9.0              Best                         41   "90 " 
##  6 Rob       10.0             Weak                         38   "106 "
##  7 Roy       11.0             Weak                         36.5 "95 " 
##  8 MegaMan   12.0             Average                      35.5 "102 "
##  9 Pokemon … 13.0             Average                      35.5 "116 "
## 10 Ness      14.0             Weak                         34   "94 " 
## # … with 45 more rows, and 3 more variables: `Run Speed` <chr>, `Fall
## #   Speed` <chr>, `Air Acceleration` <chr>

SmashUltimate %>% mutate("Speed Score" = as.numeric(`Run Speed`)+as.numeric(`Fall Speed`) +as.numeric(`Air Acceleration`))

## # A tibble: 55 x 9
##    `Meta Score Ran… Character `Meta Score Com… `Pro Score S/A … Weight
##    <chr>            <chr>                <dbl> <chr>            <chr> 
##  1 2.0              Peach                 66.5 Strong           "89 " 
##  2 4.0              Palutena              54   Strong           "91 " 
##  3 7.0              Fox                   43   Average          "79 " 
##  4 8.0              Olimar                42   Best             "79 " 
##  5 9.0              Lucina                41   Best             "90 " 
##  6 10.0             Rob                   38   Weak             "106 "
##  7 11.0             Roy                   36.5 Weak             "95 " 
##  8 12.0             MegaMan               35.5 Average          "102 "
##  9 13.0             Pokemon …             35.5 Average          "116 "
## 10 14.0             Ness                  34   Weak             "94 " 
## # … with 45 more rows, and 4 more variables: `Run Speed` <chr>, `Fall
## #   Speed` <chr>, `Air Acceleration` <chr>, `Speed Score` <dbl>
…
